Quartus_Project/simulation/qsim/PinBall.msim.vcd
$comment
	File created using the following command:
		vcd file PinBall.msim.vcd -direction
$end
$date
	Mon May 28 20:52:19 2018
$end
$version
	ModelSim Version 10.5b
$end
$timescale
	1ps
$end

$scope module hp_down_counter_vhd_vec_tst $end
$var wire 1 ! clk $end
$var wire 1 " died $end
$var wire 1 # enable $end
$var wire 1 $ game_over $end
$var wire 1 % lives_num_current [3] $end
$var wire 1 & lives_num_current [2] $end
$var wire 1 ' lives_num_current [1] $end
$var wire 1 ( lives_num_current [0] $end
$var wire 1 ) lives_num_start [3] $end
$var wire 1 * lives_num_start [2] $end
$var wire 1 + lives_num_start [1] $end
$var wire 1 , lives_num_start [0] $end
$var wire 1 - resetN $end

$scope module i1 $end
$var wire 1 . gnd $end
$var wire 1 / vcc $end
$var wire 1 0 unknown $end
$var wire 1 1 devoe $end
$var wire 1 2 devclrn $end
$var wire 1 3 devpor $end
$var wire 1 4 ww_devoe $end
$var wire 1 5 ww_devclrn $end
$var wire 1 6 ww_devpor $end
$var wire 1 7 ww_clk $end
$var wire 1 8 ww_resetN $end
$var wire 1 9 ww_lives_num_start [3] $end
$var wire 1 : ww_lives_num_start [2] $end
$var wire 1 ; ww_lives_num_start [1] $end
$var wire 1 < ww_lives_num_start [0] $end
$var wire 1 = ww_died $end
$var wire 1 > ww_enable $end
$var wire 1 ? ww_lives_num_current [3] $end
$var wire 1 @ ww_lives_num_current [2] $end
$var wire 1 A ww_lives_num_current [1] $end
$var wire 1 B ww_lives_num_current [0] $end
$var wire 1 C ww_game_over $end
$var wire 1 D \~QUARTUS_CREATED_GND~I_combout\ $end
$var wire 1 E \resetN~input_o\ $end
$var wire 1 F \lives_num_start[0]~input_o\ $end
$var wire 1 G \current_lives_sig[0]~1_combout\ $end
$var wire 1 H \clk~input_o\ $end
$var wire 1 I \clk~inputCLKENA0_outclk\ $end
$var wire 1 J \lives_num_start[3]~input_o\ $end
$var wire 1 K \current_lives_sig[3]~13_combout\ $end
$var wire 1 L \lives_num_start[2]~input_o\ $end
$var wire 1 M \current_lives_sig[2]~9_combout\ $end
$var wire 1 N \lives_num_start[1]~input_o\ $end
$var wire 1 O \current_lives_sig[1]~5_combout\ $end
$var wire 1 P \died~input_o\ $end
$var wire 1 Q \enable~input_o\ $end
$var wire 1 R \current_lives_sig[0]~21_combout\ $end
$var wire 1 S \current_lives_sig[1]~7_combout\ $end
$var wire 1 T \current_lives_sig[1]~_emulated_q\ $end
$var wire 1 U \current_lives_sig[1]~6_combout\ $end
$var wire 1 V \Equal0~1_combout\ $end
$var wire 1 W \current_lives_sig[2]~11_combout\ $end
$var wire 1 X \current_lives_sig[2]~_emulated_q\ $end
$var wire 1 Y \current_lives_sig[2]~10_combout\ $end
$var wire 1 Z \Equal0~2_combout\ $end
$var wire 1 [ \current_lives_sig[3]~15_combout\ $end
$var wire 1 \ \current_lives_sig[3]~_emulated_q\ $end
$var wire 1 ] \current_lives_sig[3]~14_combout\ $end
$var wire 1 ^ \current_lives_sig[0]~20_combout\ $end
$var wire 1 _ \current_lives_sig[0]~3_combout\ $end
$var wire 1 ` \current_lives_sig[0]~_emulated_q\ $end
$var wire 1 a \current_lives_sig[0]~2_combout\ $end
$var wire 1 b \comb~0_combout\ $end
$var wire 1 c \Equal0~0_combout\ $end
$var wire 1 d \game_over$latch~combout\ $end
$var wire 1 e \ALT_INV_enable~input_o\ $end
$var wire 1 f \ALT_INV_died~input_o\ $end
$var wire 1 g \ALT_INV_lives_num_start[3]~input_o\ $end
$var wire 1 h \ALT_INV_lives_num_start[2]~input_o\ $end
$var wire 1 i \ALT_INV_lives_num_start[1]~input_o\ $end
$var wire 1 j \ALT_INV_lives_num_start[0]~input_o\ $end
$var wire 1 k \ALT_INV_resetN~input_o\ $end
$var wire 1 l \ALT_INV_current_lives_sig[3]~13_combout\ $end
$var wire 1 m \ALT_INV_current_lives_sig[2]~9_combout\ $end
$var wire 1 n \ALT_INV_current_lives_sig[1]~5_combout\ $end
$var wire 1 o \ALT_INV_current_lives_sig[0]~1_combout\ $end
$var wire 1 p \ALT_INV_game_over$latch~combout\ $end
$var wire 1 q \ALT_INV_Equal0~2_combout\ $end
$var wire 1 r \ALT_INV_Equal0~1_combout\ $end
$var wire 1 s \ALT_INV_current_lives_sig[0]~21_combout\ $end
$var wire 1 t \ALT_INV_current_lives_sig[0]~20_combout\ $end
$var wire 1 u \ALT_INV_Equal0~0_combout\ $end
$var wire 1 v \ALT_INV_comb~0_combout\ $end
$var wire 1 w \ALT_INV_current_lives_sig[3]~14_combout\ $end
$var wire 1 x \ALT_INV_current_lives_sig[3]~_emulated_q\ $end
$var wire 1 y \ALT_INV_current_lives_sig[2]~10_combout\ $end
$var wire 1 z \ALT_INV_current_lives_sig[2]~_emulated_q\ $end
$var wire 1 { \ALT_INV_current_lives_sig[1]~6_combout\ $end
$var wire 1 | \ALT_INV_current_lives_sig[1]~_emulated_q\ $end
$var wire 1 } \ALT_INV_current_lives_sig[0]~2_combout\ $end
$var wire 1 ~ \ALT_INV_current_lives_sig[0]~_emulated_q\ $end
$upscope $end
$upscope $end
$enddefinitions $end
#0
$dumpvars
0!
0"
1#
0$
0-
0.
1/
x0
11
12
13
14
15
16
07
08
0=
1>
0C
xD
0E
1F
1G
0H
0I
0J
0K
1L
1M
0N
0O
0P
1Q
0R
0S
0T
0U
0V
0W
0X
1Y
0Z
0[
0\
0]
1^
0_
0`
1a
0b
0c
0d
0e
1f
1g
0h
1i
0j
1k
1l
0m
1n
0o
1p
1q
1r
1s
0t
1u
1v
1w
1x
0y
1z
1{
1|
0}
1~
0)
1*
0+
1,
09
1:
0;
1<
0?
1@
0A
1B
0%
1&
0'
1(
$end
#15000
1!
17
1H
1I
#30000
0!
1-
07
18
1E
0H
0I
0k
1b
0v
#45000
1!
1"
17
1=
1P
1H
1I
0f
1R
0^
1t
0s
1_
#60000
0!
07
0H
0I
#75000
1!
17
1H
1I
1`
0~
0a
1}
1S
1V
1^
0t
0r
0B
1W
0_
0(
#90000
0!
0"
07
0=
0P
0H
0I
1f
0R
0^
1t
1s
0S
0W
1_
#105000
1!
17
1H
1I
#120000
0!
07
0H
0I
#135000
1!
1"
17
1=
1P
1H
1I
0f
1R
1^
0t
0s
1S
1W
0_
#150000
0!
07
0H
0I
#165000
1!
17
1H
1I
1T
1X
0`
1~
0z
0|
1U
0Y
1a
0}
1y
0{
0W
0V
0^
1t
1r
1B
0@
1A
1W
1_
1(
1'
0&
#180000
0!
0"
07
0=
0P
0H
0I
1f
0R
1^
0t
1s
0_
#195000
1!
17
1H
1I
#210000
0!
07
0H
0I
#225000
1!
1"
17
1=
1P
1H
1I
0f
1R
0^
1t
0s
1_
#240000
0!
07
0H
0I
#255000
1!
17
1H
1I
1`
0~
0a
1}
0S
1^
0t
0B
0_
0(
#270000
0!
0"
07
0=
0P
0H
0I
1f
0R
0^
1t
1s
1S
1_
#285000
1!
17
1H
1I
#300000
0!
07
0H
0I
#315000
1!
1"
17
1=
1P
1H
1I
0f
1R
1^
0t
0s
0S
0_
#330000
0!
07
0H
0I
#345000
1!
17
1H
1I
0T
0`
1~
1|
0U
1a
0}
1{
0^
1t
1B
0A
1_
1(
0'
#360000
0!
0"
07
0=
0P
0H
0I
1f
0R
1^
0t
1s
0_
#375000
1!
17
1H
1I
#390000
0!
07
0H
0I
#405000
1!
1"
17
1=
1P
1H
1I
0f
1R
0^
1t
0s
1_
#420000
0!
07
0H
0I
#435000
1!
17
1H
1I
1`
0~
0a
1}
0R
1S
1V
1Z
1c
0u
0q
0r
1s
0B
0S
1d
0(
0p
1C
1$
#450000
0!
0"
07
0=
0P
0H
0I
1f
#465000
1!
17
1H
1I
#480000
0!
07
0H
0I
#495000
1!
1"
17
1=
1P
1H
1I
0f
#510000
0!
07
0H
0I
#525000
1!
17
1H
1I
#540000
0!
0"
07
0=
0P
0H
0I
1f
#555000
1!
17
1H
1I
#570000
0!
07
0H
0I
#585000
1!
1"
17
1=
1P
1H
1I
0f
#600000
0!
07
0H
0I
#615000
1!
17
1H
1I
#630000
0!
0"
07
0=
0P
0H
0I
1f
#645000
1!
17
1H
1I
#660000
0!
07
0H
0I
#675000
1!
1"
17
1=
1P
1H
1I
0f
#690000
0!
07
0H
0I
#705000
1!
17
1H
1I
#720000
0!
0"
07
0=
0P
0H
0I
1f
#730000
0-
08
0E
1k
0X
0`
1Y
1a
1~
1z
0}
0y
0W
0V
0Z
1^
0b
0c
1u
1v
0t
1q
1r
1B
1@
0_
0d
1(
1&
1p
0C
0$
#735000
1!
17
1H
1I
#750000
0!
07
0H
0I
#765000
1!
1"
17
1=
1P
1H
1I
0f
1R
0^
1t
0s
1_
#780000
0!
1-
07
18
1E
0H
0I
0k
1b
0v
#795000
1!
17
1H
1I
1`
0~
0a
1}
1S
1V
1^
0t
0r
0B
1W
0_
0(
#810000
0!
0"
07
0=
0P
0H
0I
1f
0R
0^
1t
1s
0S
0W
1_
#825000
1!
17
1H
1I
#840000
0!
07
0H
0I
#855000
1!
1"
17
1=
1P
1H
1I
0f
1R
1^
0t
0s
1S
1W
0_
#870000
0!
07
0H
0I
#885000
1!
17
1H
1I
1T
1X
0`
1~
0z
0|
1U
0Y
1a
0}
1y
0{
0W
0V
0^
1t
1r
1B
0@
1A
1W
1_
1(
1'
0&
#900000
0!
0"
07
0=
0P
0H
0I
1f
0R
1^
0t
1s
0_
#915000
1!
17
1H
1I
#930000
0!
07
0H
0I
#945000
1!
1"
17
1=
1P
1H
1I
0f
1R
0^
1t
0s
1_
#960000
0!
07
0H
0I
#975000
1!
17
1H
1I
1`
0~
0a
1}
0S
1^
0t
0B
0_
0(
#990000
0!
0"
07
0=
0P
0H
0I
1f
0R
0^
1t
1s
1S
1_
